0.96724,0,0,0,0,0,0,0,0,0,0,0,0,0,0,0
-0.117445368,1,0,0,0,0,0,0,0,0,0,0,0,0,0,0
-1,-1,1,0,0,0,0,0,0,0,0,0,0,0,0,0
0,0,-0.396467959,1,0,0,0,0,0,0,0,0,0,0,0,0
0,0,-0.247754107,0,1,0,0,0,0,0,0,0,0,0,0,0
0,0,-0.067631925,0,0,1,0,0,0,0,0,0,0,0,0,0
0,0,-0.211500391,0,0,0,1,0,0,0,0,0,0,0,0,0
0,0,-0.002464102,0,0,0,0,1,0,0,0,0,0,0,0,0
0,0,-0.002369658,0,0,0,0,0,1,0,0,0,0,0,0,0
0,0,-0.001687202,0,0,0,0,0,0,1,0,0,0,0,0,0
0,0,-0.01311394,0,0,0,0,0,0,0,1,0,0,0,0,0
0,0,-0.01311394,0,0,0,0,0,0,0,0,1,0,0,0,0
0,0,-0.01311394,0,0,0,0,0,0,0,0,0,1,0,0,0
0,0,-0.030782835,0,0,0,0,0,0,0,0,0,0,1,0,0
-3.17E-10,0,0,0,0,0,0,0,0,0,0,0,0,0,1,0
-6.58E-09,0,0,0,0,0,0,0,0,0,0,0,0,0,0,1
